http://localhost:5000/api/v1/stores/time/get/1
{
  "result": [
    {
      "addon_text": null, 
      "dayofweek_id": 2, 
      "hour_range": "08:00 - 12:00", 
      "shop_id": 1
    }, 
    {
      "addon_text": null, 
      "dayofweek_id": 2, 
      "hour_range": "14:00 - 22:00", 
      "shop_id": 1
    }, 
    {
      "addon_text": null, 
      "dayofweek_id": 6, 
      "hour_range": "10:00 - 22:00", 
      "shop_id": 1
    }
  ]
}

